{"total_results": 653544, "total_pages": 32678, "page": 1, "results": [{"poster_path": "/iNKf4D0AzOj9GLq8ZyG3WZaqibL.jpg", "title": "Spider-Man: No Way Home", "overview": "Peter Parker ist demaskiert und kann sein normales Leben nicht mehr von den hohen Eins\u00e4tzen als Superheld trennen. Als er Doctor Strange um Hilfe bittet, wird die Lage noch gef\u00e4hrlicher und er muss entdecken, was es wirklich bedeutet, Spider-Man zu sein.", "release_date": "2021-12-15", "popularity": 5383.752, "original_title": "Spider-Man: No Way Home", "backdrop_path": "/iQFcwSGbZXMkeyKrxbPnwnRo5fl.jpg", "vote_count": 9110, "video": false, "adult": false, "vote_average": 8.3, "genre_ids": [28, 12, 878], "id": 634649, "original_language": "en"}, {"poster_path": "/6zm78OqO4jWCpuaZ7q6Mb5j1beM.jpg", "title": "The Batman", "overview": "In seinem zweiten Jahr der Verbrechensbek\u00e4mpfung deckt Batman Korruption in Gotham City auf, die mit seiner eigenen Familie in Verbindung steht, w\u00e4hrend er einem Serienm\u00f6rder, der als Riddler bekannt ist, gegen\u00fcbersteht.", "release_date": "2022-03-01", "popularity": 3232.551, "original_title": "The Batman", "backdrop_path": "/5P8SmMzSNYikXpxil6BYzJ16611.jpg", "vote_count": 1482, "video": false, "adult": false, "vote_average": 8, "genre_ids": [80, 9648, 53], "id": 414906, "original_language": "en"}, {"poster_path": "/yGCwZwuAYWrKobmlHEIQ1OGbGiI.jpg", "title": "No Exit", "overview": "In dem Thriller wird Darby Thorne, eine junge Frau, die auf dem Weg zu ihrer Familie ist, von einem Schneesturm aufgehalten und muss mit einer Gruppe von Fremden auf einem Highway-Rastplatz Schutz suchen. Als sie in einem Transporter ein entf\u00fchrtes M\u00e4dchen entdeckt, beginnt f\u00fcr sie ein Kampf um Leben und Tod, bei dem sie den Entf\u00fchrer finden muss.", "release_date": "2022-02-25", "popularity": 3008.631, "original_title": "No Exit", "backdrop_path": "/tAztR7AXEesMQAAi5ncFPSZtYlI.jpg", "vote_count": 191, "video": false, "adult": false, "vote_average": 6.4, "genre_ids": [27, 53], "id": 833425, "original_language": "en"}, {"poster_path": "/zAC6fCnaOHMpPFpOpngTSmTDnLK.jpg", "title": "Encanto", "overview": "Die Geschichte der au\u00dfergew\u00f6hnlichen Familie Madrigal, die versteckt in den Bergen Kolumbiens leben, in einem magischen Haus, in einer pulsierenden Stadt, an einem wundersamen, charmanten Ort namens Encanto. Die Magie des Amuletts hat jedes Kind in der Familie mit einem einzigartigen Geschenk von Superkraft bis hin zu heilender Kraft gesegnet \u2013 jedes Kind au\u00dfer einem, Mirabel. Aber als sie entdeckt, dass die Magie um den Encanto in Gefahr ist, beschlie\u00dft Mirabel, dass sie, die einzige gew\u00f6hnliche Madrigalin, m\u00f6glicherweise die letzte Hoffnung ihrer au\u00dfergew\u00f6hnlichen Familie ist.", "release_date": "2021-11-24", "popularity": 2424.338, "original_title": "Encanto", "backdrop_path": "/3G1Q5xF40HkUBJXxt2DQgQzKTp5.jpg", "vote_count": 5188, "video": false, "adult": false, "vote_average": 7.7, "genre_ids": [16, 35, 10751, 14], "id": 568124, "original_language": "en"}, {"poster_path": "/pYlFGN6Cj5U726F6gYQTrRcsqGq.jpg", "title": "Sans r\u00e9pit - Ruhelos", "overview": "W\u00e4hrend gegen ihn wegen Korruption ermittelt wird, muss Leutnant Thomas Blin (Franck Gastambide) mitten in der Nacht zur Beerdigung seiner Mutter fahren. Als er einem Hund auf der Stra\u00dfe ausweichen will, rammt er versehentlich einen Mann und t\u00f6tet ihn auf der Stelle. In Panik beschlie\u00dft er, die Leiche zu verstecken. Als er glaubt, dass er aus dem Schneider ist, ger\u00e4t er in eine Abw\u00e4rtsspirale, weil ein Kollege von ihm mit der Untersuchung des Vermissten betraut wird und ein mysteri\u00f6ser Zeuge versucht, ihn zu erpressen...  Remake des koreanischen Actionfilms \u201eA Hard Day\u201c um einen korrupten Polizisten, der erpresst wird, nachdem er einen Autounfall mit Todesfolge vertuscht hat.", "release_date": "2022-02-25", "popularity": 2168.24, "original_title": "Sans r\u00e9pit", "backdrop_path": "/7CamWBejQ9JQOO5vAghZfrFpMXY.jpg", "vote_count": 139, "video": false, "adult": false, "vote_average": 5.9, "genre_ids": [28, 53, 80], "id": 928381, "original_language": "fr"}, {"poster_path": "/pSh8MyYu5CmfyWEHzv8FEARH2zq.jpg", "title": "The Commando", "overview": "", "release_date": "2022-01-07", "popularity": 2022.086, "original_title": "The Commando", "backdrop_path": "/pnZ9NMxRqbcJ2dPNROIoregruv5.jpg", "vote_count": 51, "video": false, "adult": false, "vote_average": 6.6, "genre_ids": [28, 80, 53], "id": 753232, "original_language": "en"}, {"poster_path": "/sCSg7QxeOyUvuckKqbMjdK4jMi8.jpg", "title": "The King\u2019s Man - The Beginning", "overview": "Der junge Conrad wird vom Duke of Oxford in die Welt der britischen Spionage eingef\u00fchrt. Dabei trifft er auf zahlreiche historische Figuren wie den britischen General Herbert Kitchener und den serbischen Attent\u00e4ter Gavrilo Princip sowie den mysteri\u00f6sen und gef\u00e4hrlichen Russen Grigori Rasputin, der gemeinsam mit dem mysteri\u00f6sen Hirten und den Monarchen George V., Wilhelm II. und Nikolaus II. eine Verschw\u00f6rung ausgeheckt hat, die die Welt ins Verderben st\u00fcrzen k\u00f6nnte...", "release_date": "2021-12-22", "popularity": 1848.521, "original_title": "The King's Man", "backdrop_path": "/oQPbZ5e6J9fuAyv4Gl0mMZMIyPI.jpg", "vote_count": 1859, "video": false, "adult": false, "vote_average": 7, "genre_ids": [28, 12, 53, 10752], "id": 476669, "original_language": "en"}, {"poster_path": "/qMcujb8b0Efsnz3kB0WwasmJNYj.jpg", "title": "Red Notice", "overview": "Stilvoll zu rauben, ist eine Kunst! Den T\u00e4ter zu fangen, ein wahres Meisterwerk. Besonders, wenn die gesuchte Diebin (Gal Gadot) eine der ber\u00fcchtigtsten Kunstr\u00e4uberinnen der Welt ist. F\u00fcr den FBI-Profiler und Agenten John Hartley (Dwayne Johnson) eine gro\u00dfe Herausforderung, die ihm bei seinem Ehrgeiz packt. Allerdings muss er feststellen, dass er gegen die clevere Kriminelle allein keine Chance hat. Hilfe holt er sich von dem Profi Nolan Booth (Ryan Reynolds), der genau wei\u00df, wie das Spiel mit dem Raub und Betr\u00fcgen funktioniert. Zusammen wollen sie die Diebin auf frischer Tat ertappen, doch die Jagd scheint jedes Mal aufs Neue ins Leere zu laufen. Kann John seinem unfreiwilligen Partner vertrauen oder spielt der Trickbetr\u00fcger ein falsches Spiel mit dem FBI-Agenten? Tatsache ist, dass der n\u00e4chste Schritt auf dieser Mission mit Bedacht und Vorsicht gesetzt werden sollte.", "release_date": "2021-11-04", "popularity": 1695.818, "original_title": "Red Notice", "backdrop_path": "/dK12GIdhGP6NPGFssK2Fh265jyr.jpg", "vote_count": 3215, "video": false, "adult": false, "vote_average": 6.8, "genre_ids": [28, 35, 80, 53], "id": 512195, "original_language": "en"}, {"poster_path": "/o183fNXgZzaatXDrrKBKLJJjrby.jpg", "title": "Kimi", "overview": "Nachdem eine agoraphobische technische Angestellte bei der \u00dcberpr\u00fcfung eines gew\u00f6hnlichen Datenstroms aufgezeichnete Beweise f\u00fcr ein Gewaltverbrechen entdeckt hat, versucht sie, die Befehlskette in ihrem Unternehmen zu durchbrechen. Sie st\u00f6\u00dft auf Widerstand und B\u00fcrokratie und erkennt, dass sie das tun muss, wovor sie sich am meisten f\u00fcrchtet - sie muss ihre Wohnung verlassen, um sich einzumischen.", "release_date": "2022-02-10", "popularity": 1616.429, "original_title": "Kimi", "backdrop_path": "/mruT954ve6P1zquaRs6XG0hA5k9.jpg", "vote_count": 235, "video": false, "adult": false, "vote_average": 6.3, "genre_ids": [53], "id": 800510, "original_language": "en"}, {"poster_path": "/3cccEF9QZgV9bLWyupJO41HSrOV.jpg", "title": "Fistful of Vengeance", "overview": "Als er eine Killerin bis nach Bangkok jagt, m\u00fcndet die einfache Rachemission des Auftragsm\u00f6rders Kai mit seinen Superkr\u00e4ften in einen Kampf um die Rettung der Welt.", "release_date": "2022-02-17", "popularity": 1492.655, "original_title": "Fistful of Vengeance", "backdrop_path": "/wMUPT99gw6IB9OVvC46rF8wHIRt.jpg", "vote_count": 126, "video": false, "adult": false, "vote_average": 5.4, "genre_ids": [28, 80, 14], "id": 890656, "original_language": "en"}, {"poster_path": "/7pYYGm1dWZGkbJuhcuaHD6nE6k7.jpg", "title": "Desperate Riders", "overview": "", "release_date": "2022-02-25", "popularity": 1466.253, "original_title": "Desperate Riders", "backdrop_path": "/i5dUmY2xRzgkmjHJYKNj8kPX1Xx.jpg", "vote_count": 13, "video": false, "adult": false, "vote_average": 6, "genre_ids": [37, 28], "id": 928999, "original_language": "en"}, {"poster_path": "/1KHoDh6NW8SWOJu8JnFe6wWaMD3.jpg", "title": "Blacklight", "overview": "Travis Block ist ein Regierungsagent, der sich mit seiner dunklen Vergangenheit auseinandersetzen muss. Als er ein Komplott gegen US-B\u00fcrger aufdeckt, ger\u00e4t Block ins Fadenkreuz des FBI-Direktors, den er einst besch\u00fctzt hat.", "release_date": "2022-02-10", "popularity": 1465.03, "original_title": "Blacklight", "backdrop_path": "/2hGjmgZrS1nlsEl5PZorn7EsmzH.jpg", "vote_count": 104, "video": false, "adult": false, "vote_average": 5.1, "genre_ids": [28, 53], "id": 823625, "original_language": "en"}, {"poster_path": "/xJwzKEpSUKyUGL29305xleARqsC.jpg", "title": "Scream", "overview": "Der Killer mit dem Ghostface kehrt zur\u00fcck nach Woodsboro! Diesmal hat es der psychopathische M\u00f6rder auf eine Gruppe junger Menschen abgesehen, die in einer Verbindung zu den Opfern und \u00dcberlebenden der vorherigen Woodsboro-Attentate stehen. Ein Teenager nach dem anderen wird niedergemetzelt und die Geheimnisse der Kleinstadt r\u00fccken immer mehr ins Zentrum der \u00d6ffentlichkeit. F\u00fcr die \u00dcberlebenden Sidney Prescott (Neve Campbell), Journalistin Gale Weathers (Courteney Cox) und Ex-Sheriff Dewey (David Arquette) ist die R\u00fcckkehr des Killers ein Auseinandersetzen mit der Vergangenheit. Ihnen bleibt keine andere Wahl, als wieder miteinander in Kontakt zu treten und weitere Morde zu verhindern. Ob die Regeln zum \u00dcberleben, die ihnen zuvor das Leben gerettet haben, noch weiterhin g\u00fcltig sind, m\u00fcssen Sidney und ihre Freunde bald am eigenen Leib erfahren.", "release_date": "2022-01-12", "popularity": 1441.815, "original_title": "Scream", "backdrop_path": "/ifUfE79O1raUwbaQRIB7XnFz5ZC.jpg", "vote_count": 874, "video": false, "adult": false, "vote_average": 6.8, "genre_ids": [27, 9648, 53], "id": 646385, "original_language": "en"}, {"poster_path": "/sbGffFF2EencRQuUc7jsmASIGvh.jpg", "title": "Ice Age: Die Abenteuer von Buck Wild", "overview": "Die Opossum-Br\u00fcder Crash und Eddie wollen sich von ihrer gro\u00dfen Schwester emanzipieren und suchen nach einer neuen Bleibe. In einem riesigen H\u00f6hlensystem unter der Erde verirren sie sich, werden jedoch dank des tollk\u00fchnen Dinosaurierj\u00e4gers Buck Wild gerettet. W\u00e4hrend Crash und Eddie ein abenteuerliches Leben wie Buck f\u00fchren wollen, m\u00fcssen sie schon bald feststellen, dass in der verlorenen Welt voller Dinosaurier Gefahren an jeder Ecke lauern. Zum Gl\u00fcck kennt Buck die Gefahren wie kein Zweiter.", "release_date": "2022-01-28", "popularity": 1423.27, "original_title": "The Ice Age Adventures of Buck Wild", "backdrop_path": "/eG0oOQVsniPAuecPzDD1B1gnYWy.jpg", "vote_count": 762, "video": false, "adult": false, "vote_average": 7.1, "genre_ids": [16, 35, 12, 10751], "id": 774825, "original_language": "en"}, {"poster_path": "/yjdOpEtlzlAnw4Kw0NGw25VrbIb.jpg", "title": "My Hero Academia: World Heroes\u2019 Mission", "overview": "Ein Terroristenkult versucht mittels Giftgas, alle Menschen mit angeborenen Spezialit\u00e4ten auf der ganzen Welt zu vernichten. Nachdem bereits die erste Stadt verw\u00fcstet ist, werden die Helden ausgesandt, um den Anf\u00fchrer des Kultes festzusetzen. Deku, Bakugo und Shoto reisen als Teil des Teams von Endeavor nach Otheon in Europa. Doch dort haben sie aber zun\u00e4chst weniger mit dem Kult, sondern erst einmal mit der Polizei und der Anklage, 12 Menschen get\u00f6tet zu haben, zu k\u00e4mpfen \u2026", "release_date": "2021-08-06", "popularity": 1411.84, "original_title": "\u50d5\u306e\u30d2\u30fc\u30ed\u30fc\u30a2\u30ab\u30c7\u30df\u30a2 THE MOVIE \u30ef\u30fc\u30eb\u30c9 \u30d2\u30fc\u30ed\u30fc\u30ba \u30df\u30c3\u30b7\u30e7\u30f3", "backdrop_path": "/cugmVwK0N4aAcLibelKN5jWDXSx.jpg", "vote_count": 109, "video": false, "adult": false, "vote_average": 7.3, "genre_ids": [16, 28, 14, 12], "id": 768744, "original_language": "ja"}, {"poster_path": "/4VNhjiVyURBFnzv9DZ2jFTSKHU6.jpg", "title": "Hotel Transsilvanien 4 - Eine Monster Verwandlung", "overview": "Als Van Helsings geheimnisvolle Erfindung verr\u00fcckt spielt, werden Drac und seine Freunde in Menschen verwandelt, w\u00e4hrend Johnny zum Monster wird! In ihren neuen, ungewohnten K\u00f6rpern m\u00fcssen sich Drac und Johnny zusammentun, um ein Heilmittel zu finden. Mit der Hilfe von Mavis und dem Drac-Pack suchen sie nach einem Weg, ihr altes Aussehen wiederzuerlangen, bevor ihre Verwandlung unumkehrbar wird.", "release_date": "2022-02-25", "popularity": 1358.455, "original_title": "Hotel Transylvania: Transformania", "backdrop_path": "/qBLEWvJNVsehJkEJqIigPsWyBse.jpg", "vote_count": 331, "video": false, "adult": false, "vote_average": 7, "genre_ids": [16, 10751, 14, 35, 12], "id": 585083, "original_language": "en"}, {"poster_path": "/bcCBq9N1EMo3daNIjWJ8kYvrQm6.jpg", "title": "Eternals", "overview": "Die Eternals sind ein Team aus uralten Au\u00dferirdischen, die seit Tausenden von Jahren im Verborgenen auf der Erde gelebt haben. Als eine unerwartete Trag\u00f6die sie dazu zwingt, aus dem Schatten zu treten, sind sie gezwungen, sich gegen den \u00e4ltesten Feind der Menschheit, die Deviants, zu vereinen.", "release_date": "2021-11-03", "popularity": 1287.022, "original_title": "Eternals", "backdrop_path": "/c6H7Z4u73ir3cIoCteuhJh7UCAR.jpg", "vote_count": 4777, "video": false, "adult": false, "vote_average": 7.2, "genre_ids": [878], "id": 524434, "original_language": "en"}, {"poster_path": "/i0z8g2VRZP3dhVvvSMilbOZMKqR.jpg", "title": "The Requin", "overview": "", "release_date": "2022-01-28", "popularity": 1237.957, "original_title": "The Requin", "backdrop_path": "/eVSa4TpyXbOdk9fXSD6OcORJGtv.jpg", "vote_count": 75, "video": false, "adult": false, "vote_average": 4.6, "genre_ids": [53], "id": 803114, "original_language": "en"}, {"poster_path": "/wYihSXWYqN8Ejsdut2P1P0o97N0.jpg", "title": "Pursuit", "overview": "", "release_date": "2022-02-18", "popularity": 1206.104, "original_title": "Pursuit", "backdrop_path": "/yKnjIWNIVECfMoKy1ayl68vX6qj.jpg", "vote_count": 22, "video": false, "adult": false, "vote_average": 5.9, "genre_ids": [28, 80, 53], "id": 871799, "original_language": "en"}, {"poster_path": "/xZu3SJJuMwJJwa4R9edP6o56OlH.jpg", "title": "Nightmare Alley", "overview": "Als der charismatische, aber vom Pech verfolgte Stanton Carlisle  auf einem Jahrmarkt die Hellseherin Zeena  und ihren Mann und Mentalisten Pete kennenlernt, wittert er seine Chance. Er nutzt die Gelegenheit, lernt von ihnen was er nur kann und nutzt sein neu erworbenes Wissen, um die wohlhabende Elite der New Yorker Gesellschaft der 40er Jahre auszunehmen. Mit der ihm treu ergebenen Molly, plant Stanton den gef\u00e4hrlichen Tycoon Ezra Grindle  zu betr\u00fcgen. Eine mysteri\u00f6se Psychiaterin soll ihm dabei helfen. Doch ausgerechnet sie k\u00f6nnte sich als seine bisher gef\u00e4hrlichste Gegnerin erweisen.", "release_date": "2021-12-02", "popularity": 1196.733, "original_title": "Nightmare Alley", "backdrop_path": "/g0YNGpmlXsgHfhGnJz3c5uyzZ1B.jpg", "vote_count": 978, "video": false, "adult": false, "vote_average": 7.1, "genre_ids": [80, 18, 53], "id": 597208, "original_language": "en"}]}