{"total_results": 165, "total_pages": 9, "page": 1, "results": [{"origin_country": ["BR"], "poster_path": "/63qlVcvlVzOvMaFO8tFA2VG64Yc.jpg", "name": "Um Lugar ao Sol", "overview": "", "popularity": 601.464, "original_name": "Um Lugar ao Sol", "backdrop_path": "/8lBlBItnehgOAwFt0ezxlXuWeIO.jpg", "vote_average": 5.6, "vote_count": 7, "first_air_date": "2021-11-08", "original_language": "pt", "id": 132375, "genre_ids": [10766, 18]}, {"origin_country": ["BR"], "poster_path": "/ydtfMZMu04L5noElS35BespN8rV.jpg", "name": "Quanto Mais Vida, Melhor!", "overview": "", "popularity": 599.79, "original_name": "Quanto Mais Vida, Melhor!", "backdrop_path": "/bX6embf0yknbV6R5NVUwM60FQXG.jpg", "vote_average": 4.5, "vote_count": 3, "first_air_date": "2021-11-22", "original_language": "pt", "id": 139009, "genre_ids": [10766, 35]}, {"origin_country": ["NL"], "poster_path": "/zmXxCP0op3PoCSiqXkSKDySbxe8.jpg", "name": "Big Brother", "overview": "", "popularity": 520.586, "original_name": "Big Brother", "backdrop_path": "/jQQMAfi6Xlo8jEuPe8qV2cWf6pR.jpg", "vote_average": 5.8, "vote_count": 7, "first_air_date": "2021-01-04", "original_language": "nl", "id": 114885, "genre_ids": [10764]}, {"origin_country": ["CN"], "poster_path": "/psf1OEZQydHBUH2aJohPcM6yXo4.jpg", "name": "\u6211\u4eec\u7684\u5a5a\u59fb", "overview": "", "popularity": 426.947, "original_name": "\u6211\u4eec\u7684\u5a5a\u59fb", "backdrop_path": "/zF0WpdL4eNRT7tp9r5OoJI07kCf.jpg", "vote_average": 7, "vote_count": 1, "first_air_date": "2022-02-24", "original_language": "zh", "id": 158170, "genre_ids": [18]}, {"origin_country": ["CN"], "poster_path": "/qJ2GwEwuKcTk3m96TNbAjxeWmtN.jpg", "name": "\u76f8\u9022\u65f6\u8282", "overview": "", "popularity": 426.947, "original_name": "\u76f8\u9022\u65f6\u8282", "backdrop_path": "/2CDRJthedXeSXKLQQQR8oXOg9dE.jpg", "vote_average": 6, "vote_count": 1, "first_air_date": "2022-02-24", "original_language": "zh", "id": 158168, "genre_ids": [18]}, {"origin_country": ["IN"], "poster_path": "/jKonm6Q3vw51Ytd4y7bJ70xJT7l.jpg", "name": "\u0935\u093e\u0917\u0932\u0947 \u0915\u0940 \u0926\u0941\u0928\u093f\u092f\u093e", "overview": "", "popularity": 236.453, "original_name": "\u0935\u093e\u0917\u0932\u0947 \u0915\u0940 \u0926\u0941\u0928\u093f\u092f\u093e", "backdrop_path": "/mqnyFBK7RMZaGhD6gVHspoUYK6I.jpg", "vote_average": 4.7, "vote_count": 3, "first_air_date": "2021-02-08", "original_language": "hi", "id": 119316, "genre_ids": [35, 18, 10751]}, {"origin_country": ["JP"], "poster_path": "/oSH24anb0NVDe1jb12u5ITZa7V8.jpg", "name": "JoJo's Bizarre Adventure", "overview": "Mehrere Generationen der Joestar-Familie \u2013 alle mit demselben Spitznamen \u2013 bek\u00e4mpfen in verschiedenen Zeitaltern \u00fcbernat\u00fcrliche Superschurken.", "popularity": 233.671, "original_name": "\u30b8\u30e7\u30b8\u30e7\u306e\u5947\u5999\u306a\u5192\u967a", "backdrop_path": "/mLKN1dsimKPiXCZ48KED0X8a02t.jpg", "vote_average": 8.8, "vote_count": 869, "first_air_date": "2012-10-06", "original_language": "ja", "id": 45790, "genre_ids": [16, 10759, 10765]}, {"origin_country": ["CN"], "poster_path": "/maYI6FZeALhk2NFfhVR7qNSwhf3.jpg", "name": "\u5a5a\u59fb\u7684\u4e24\u79cd\u731c\u60f3", "overview": "", "popularity": 217.83, "original_name": "\u5a5a\u59fb\u7684\u4e24\u79cd\u731c\u60f3", "backdrop_path": "/2mUopAHgTp6pHPFgolxrxST0ueL.jpg", "vote_average": 0, "vote_count": 0, "first_air_date": "2022-02-21", "original_language": "zh", "id": 158294, "genre_ids": [10751, 18]}, {"origin_country": ["CN"], "poster_path": "/qKtG0Noq7PI8VN5QdK72bAJw2Xs.jpg", "name": "Two Conjectures About Marriage", "overview": "", "popularity": 217.83, "original_name": "Two Conjectures About Marriage", "backdrop_path": "/c68rocWcD1jpYADFyVJ9icZYiX3.jpg", "vote_average": 0, "vote_count": 0, "first_air_date": "2022-02-21", "original_language": "zh", "id": 158280, "genre_ids": []}, {"origin_country": ["JP"], "poster_path": "/nHGjMkoPdGATDz0kBDUC1zZtri0.jpg", "name": "Detektiv Conan", "overview": "Conan Edogawa sieht aus wie ein Grundsch\u00fcler. Tats\u00e4chlich ist er Shinichi Kudo, der 17-j\u00e4hrige Meisterdetektiv Japans, der von zwei Verbrechern vergiftet wurde. Er starb zwar nicht, entwickelte sich aber k\u00f6rperlich zum Kind zur\u00fcck. Im Kopf ist er aber weiter der brillante Ermittler von einst und so st\u00fcrzt er sich weiterhin auf geheimnisvolle Mordf\u00e4lle.", "popularity": 197.238, "original_name": "\u540d\u63a2\u5075\u30b3\u30ca\u30f3", "backdrop_path": "/8nzvbgGM1bDqK3fscy86LyOnDcf.jpg", "vote_average": 7.9, "vote_count": 522, "first_air_date": "1996-01-08", "original_language": "ja", "id": 30983, "genre_ids": [16, 35, 9648]}, {"origin_country": ["KR"], "poster_path": "/zak7mqMxJGnnWplSdbjDtV7bg2Y.jpg", "name": "\uc544\ub294 \ud615\ub2d8", "overview": "", "popularity": 192.049, "original_name": "\uc544\ub294 \ud615\ub2d8", "backdrop_path": "/mZsTrylVWYYPkoY793G5G7nBbAa.jpg", "vote_average": 7.9, "vote_count": 21, "first_air_date": "2015-12-05", "original_language": "ko", "id": 70672, "genre_ids": [10764, 35]}, {"origin_country": ["CN"], "poster_path": "/gazKYKGh0QH8ZISBuAlUpFN9xPT.jpg", "name": "\u5c1a\u98df", "overview": "", "popularity": 175.126, "original_name": "\u5c1a\u98df", "backdrop_path": "/zmGnOzbzJFUl5PPgqzGAFjebNs3.jpg", "vote_average": 7.5, "vote_count": 2, "first_air_date": "2022-02-22", "original_language": "zh", "id": 95457, "genre_ids": [18]}, {"origin_country": ["JP"], "poster_path": "/zv2sE6tWE4AcwDZF2rEMffstm6t.jpg", "name": "Nicht schon wieder, Takagi-san", "overview": "Der Mittelsch\u00fcler Nishikata hat es wahrlich nicht leicht: Jeden einzelnen Tag wird er in der Schule von seiner Sitznachbarin Takagi aufgezogen. Immer wieder probiert er, sie endlich auch mal zu necken, doch egal wie raffiniert ihm seine Pl\u00e4ne selbst erscheinen m\u00f6gen, am Ende gehen sie stets nach hinten los. Die Meisterneckerin Takagi ist einfach verdammt clever und liest Nishikata wie ein offenes Buch, was stets dazu f\u00fchrt, dass der Springteufel ihm letztlich selber ins Gesicht h\u00fcpft oder die Runde Schere, Stein, Papier damit endet, dass der Lehrer ihm die Kreide an den Kopf wirft. Doch Nishikata gibt nicht auf, ehe er nicht sieht, wie Takagis niedliches Gesicht rot anl\u00e4uft...", "popularity": 165.887, "original_name": "\u304b\u3089\u304b\u3044\u4e0a\u624b\u306e\u9ad8\u6728\u3055\u3093", "backdrop_path": "/1FWbkRMkGwvRldXnXBjZDGjqB2B.jpg", "vote_average": 8.3, "vote_count": 286, "first_air_date": "2018-01-08", "original_language": "ja", "id": 75865, "genre_ids": [16, 35]}, {"origin_country": ["JP"], "poster_path": "/u6Uabzw8y7hHOygvR2JWnzHUzLX.jpg", "name": "Der st\u00e4rkste Held mit dem Mal der Schw\u00e4che", "overview": "Mathias beschlie\u00dft als m\u00e4chtigster Weiser der Welt, dass ihm eine Reinkarnation zur wahren Gr\u00f6\u00dfe verhelfen w\u00fcrde, da seine Kraft durch ein magisches Wappen begrenzt ist. Bei seiner Wiedergeburt als kleiner Junge ist er begeistert, dass er gleich auf Anhieb mit dem optimalen Wappen f\u00fcr den magischen Kampf gesegnet wurde! Leider hat die Welt, in die er hineingeboren wurde, jedoch abgrundtief niedrige Standards, wenn es um Magie geht. Jetzt liegt es an Mathias, allen zu beweisen, dass sie sich irren!", "popularity": 160.544, "original_name": "\u5931\u683c\u7d0b\u306e\u6700\u5f37\u8ce2\u8005", "backdrop_path": "/bE14LgY9fQdUTTUlHx6e4Vre8pa.jpg", "vote_average": 7.2, "vote_count": 5, "first_air_date": "2022-01-08", "original_language": "ja", "id": 117884, "genre_ids": [16, 10759, 35, 10765]}, {"origin_country": ["JP"], "poster_path": "/xnHfAL0zejjJo7OBmWkY96uDhde.jpg", "name": "Yashahime: Princess Half-Demon", "overview": "Yashahime: Princess Half-Demon dreht sich um die T\u00f6chter von Inuyasha und Sesshoumaru und ihrer Reise, welche die Grenzen der Zeit \u00fcberschreitet. Im feudalen Japan werden die Halb-Yokai-Schwestern Towa und Setsuna durch einen Waldbrand voneinander getrennt. Auf der Suche nach ihrer Schwester ger\u00e4t Towa in einen mysteri\u00f6sen Tunnel, der sie ins Japan der Gegenwart transportiert, wo sie Kagome Higurashis Bruder Sota findet und bei seiner Familie aufnimmt. Zehn Jahre sp\u00e4ter \u00f6ffnet sich der Tunnel erneut und erlaubt Towa endlich, Setsuna wiederzusehen \u2013 doch mittlerweile ist sie eine Yokaij\u00e4gerin im Dienste von Kohaku und hat all ihre Erinnerungen verloren! Gemeinsam mit Moroha, der Tochter von Inuyasha und Kagome, machen die drei sich auf, um ihre verlorene Vergangenheit wiederzufinden.", "popularity": 159.33, "original_name": "\u534a\u5996\u306e\u591c\u53c9\u59eb", "backdrop_path": "/w8uW2KXaub2tWLgdKu72JHrj7Wk.jpg", "vote_average": 7.6, "vote_count": 21, "first_air_date": "2020-10-03", "original_language": "ja", "id": 103254, "genre_ids": [16, 10759]}, {"origin_country": ["JP"], "poster_path": "/c5GOXlm4kfRdK4w6XXwDGabW6A0.jpg", "name": "Girls Frontline", "overview": "Nachdem die Erde im Dritten Weltkrieg von biologischen Kampfstoffen weitgehend brach gelegt wurde, ist es den verbliebenen Nationen kaum noch m\u00f6glich, das entstandene \u00d6dland milit\u00e4risch abzusichern. Deswegen werden immer h\u00e4ufiger private Unternehmen wie \u00bbGriffin & Kryuger\u00ab damit beauftragt, die Truppen der skrupellosen Androiden-Armee Sangvis Ferri zu bek\u00e4mpfen, die das Fortbestehen der Menschheit bedroht. Doch auch Griffin & Kryuger setzen auf weibliche Androiden, um im Kampf zu bestehen, so wie beispielsweise M4A1, eine noch unerprobte Anf\u00fchrerin einer Spezialeinheit, die in verschiedenen Operationen gegen den Feind vorgehen soll, um ihn endg\u00fcltig zu vernichten.", "popularity": 153.514, "original_name": "\u30c9\u30fc\u30eb\u30ba\u30d5\u30ed\u30f3\u30c8\u30e9\u30a4\u30f3", "backdrop_path": "/kIWSdSCwlABkG6kAYwk07AC8UHH.jpg", "vote_average": 5, "vote_count": 2, "first_air_date": "2022-01-08", "original_language": "ja", "id": 117310, "genre_ids": [16, 10759, 10765]}, {"origin_country": ["US"], "poster_path": "/7rA6AYsu6eks6NUB1cC9GqVwIkO.jpg", "name": "Saturday Night Live", "overview": "", "popularity": 150.961, "original_name": "Saturday Night Live", "backdrop_path": "/yYaxXMbobcB7PIM6XljZZk2x4FQ.jpg", "vote_average": 6.9, "vote_count": 298, "first_air_date": "1975-10-11", "original_language": "en", "id": 1667, "genre_ids": [35, 10763]}, {"origin_country": ["JP"], "poster_path": "/sja5f0YyKe7G6bVtSrpaXCvd9ia.jpg", "name": "The Case Study of Vanitas", "overview": "Dies ist die Geschichte vom Ende der Vampire. Frankreich, 19. Jahrhundert. Mensch und Vampir leben Seite an Seite. No\u00e9, ein junger Vampir, ist auf der Suche nach dem Buch des Vanitas, einem Grimoire, das in der Lage sein soll, Vampire mit einem Fluch zu belegen. Sein Weg f\u00fchrt ihn nach Paris, doch noch bevor er dort ankommt, wird er in einen Zwischenfall an Bord eines Luftschiffes verwickelt. Im Zentrum des Tumults steht Vanitas, seines Zeichens Arzt, der sich auf Vampire spezialisiert hat. Und ein einfacher Mensch. Doch in seiner Hand hielt er kein anderes als jenes Grimoire, nach dem No\u00e9 sucht \u2026 Ihre Begegnung markiert den Beginn dieser Geschichte. Einer Geschichte von Vampiren, Fl\u00fcchen und Erl\u00f6sung \u2026", "popularity": 127.523, "original_name": "\u30f4\u30a1\u30cb\u30bf\u30b9\u306e\u624b\u8a18", "backdrop_path": "/u8QlDE78tI6ValBADKa4NEOWihQ.jpg", "vote_average": 8.4, "vote_count": 101, "first_air_date": "2021-07-03", "original_language": "ja", "id": 121964, "genre_ids": [16, 9648, 10759]}, {"origin_country": ["JP"], "poster_path": "/qlYYUnWBbBIJTHqRAZ7cWORrwVE.jpg", "name": "CUE!", "overview": "Anime auf der Grundlage des gleichnamigen Handyspiels von Liber Entertainment, in dem die Spieler aufstrebende Synchronsprecher ausbilden.", "popularity": 113.133, "original_name": "CUE!", "backdrop_path": "/hK4AmFEO5JBbvYxrreCpPiAxKg1.jpg", "vote_average": 5, "vote_count": 1, "first_air_date": "2022-01-08", "original_language": "ja", "id": 112463, "genre_ids": [16, 35]}, {"origin_country": ["TH"], "poster_path": "/334do2iDAT210BsrQ0nDoNNMatS.jpg", "name": "F4 Thailand: \u0e2b\u0e31\u0e27\u0e43\u0e08\u0e23\u0e31\u0e01\u0e2a\u0e35\u0e48\u0e14\u0e27\u0e07\u0e14\u0e32\u0e27 Boys Over Flowers", "overview": "", "popularity": 96.156, "original_name": "F4 Thailand: \u0e2b\u0e31\u0e27\u0e43\u0e08\u0e23\u0e31\u0e01\u0e2a\u0e35\u0e48\u0e14\u0e27\u0e07\u0e14\u0e32\u0e27 Boys Over Flowers", "backdrop_path": "/yZ2QPc1OdUgXNfSc3ntynvrE2TZ.jpg", "vote_average": 9.7, "vote_count": 3, "first_air_date": "2021-12-18", "original_language": "th", "id": 153378, "genre_ids": [35, 18]}]}