{"total_results": 1104, "total_pages": 56, "page": 1, "results": [{"origin_country": ["CO"], "poster_path": "/lWlsZIsrGVWHtBeoOeLxIKDd9uy.jpg", "name": "Pasi\u00f3n de gavilanes", "overview": "", "popularity": 2262.208, "original_name": "Pasi\u00f3n de gavilanes", "backdrop_path": "/4g5gK5eGWZg8swIZl6eX2AoJp8S.jpg", "vote_average": 7.7, "vote_count": 1733, "first_air_date": "2003-10-21", "original_language": "es", "id": 11250, "genre_ids": [18]}, {"origin_country": ["GB"], "poster_path": "/vUUqzWa2LnHIVqkaKVlVGkVcZIW.jpg", "name": "Peaky Blinders \u2013 Gangs of Birmingham", "overview": "Eine ber\u00fcchtigte Gang im Birmingham des Jahres 1919 wird von Tommy Shelby, einem toughen Bandenboss angef\u00fchrt. Dieser will um jeden Preis in der Welt aufsteigen.", "popularity": 1682.617, "original_name": "Peaky Blinders", "backdrop_path": "/hI5h8o3bbZlZwnySEs6rL7pXH32.jpg", "vote_average": 8.6, "vote_count": 5635, "first_air_date": "2013-09-12", "original_language": "en", "id": 60574, "genre_ids": [18, 80]}, {"origin_country": ["US"], "poster_path": "/rqeYMLryjcawh2JeRpCVUDXYM5b.jpg", "name": "The Walking Dead", "overview": "The Walking Dead spielt bislang in der Metropolregion von Atlanta, im S\u00fcdosten der Vereinigten Staaten, und erz\u00e4hlt vom Kampf einer kleinen Gruppe \u00dcberlebender nach einer weltweiten Zombie-Apokalypse. Unter F\u00fchrung des Sheriffs Rick Grimes ist die Gruppe auf der Suche nach einer dauerhaften und vor allem sicheren Bleibe. Dabei stellen die fast \u00fcberall pr\u00e4senten Untoten eine permanent vorhandene Bedrohung dar, die jederzeit ohne Vorwarnung zuschlagen kann. Im Laufe der Zeit wird die Gruppe daher zwangsl\u00e4ufig immer kleiner, da manche Mitglieder den Zombies zum Opfer fallen, andere die Gruppe verlassen oder sich f\u00fcr den Tod entscheiden.", "popularity": 1186.971, "original_name": "The Walking Dead", "backdrop_path": "/uro2Khv7JxlzXtLb8tCIbRhkb9E.jpg", "vote_average": 8.1, "vote_count": 12696, "first_air_date": "2010-10-31", "original_language": "en", "id": 1402, "genre_ids": [10759, 18, 10765]}, {"origin_country": ["US"], "poster_path": "/z1K4mJwISETia59rrnMdXxzoSrZ.jpg", "name": "The Good Doctor", "overview": "Shaun Murphy ist anders als seine Kollegen: Der autistische Chirurg ist inselbegabt und sowohl durch sein tiefgehendes medizinisches Verst\u00e4ndnis als auch durch seine scharfsinnigen medizinischen Diagnosen ein echtes Genie. Sein Mentor und Jugendbekannter Dr. Aaron Glassman h\u00e4lt daher gro\u00dfe St\u00fccke auf Shauns F\u00e4higkeiten und verschafft ihm als Klinikchef des St. Bonaventure Hospitals in San Jos\u00e9 einen Job als Assistenzarzt in der dortigen Chirurgie.", "popularity": 1150.508, "original_name": "The Good Doctor", "backdrop_path": "/9OYu6oDLIidSOocW3JTGtd2Oyqy.jpg", "vote_average": 8.5, "vote_count": 10264, "first_air_date": "2017-09-25", "original_language": "en", "id": 71712, "genre_ids": [18]}, {"origin_country": ["US"], "poster_path": "/lJA2RCMfsWoskqlQhXPSLFQGXEJ.jpg", "name": "The Flash", "overview": "Barry Allen ist ein junger kriminaltechnischer Ermittler, der nach Starling kommt, um eine Reihe von \u00dcberf\u00e4llen zu untersuchen, die mit einer Trag\u00f6die in seiner Vergangenheit zusammenh\u00e4ngen k\u00f6nnten. Dabei triftt er auf den maskierten Helden Arrow und wird selbst zum kost\u00fcmierten K\u00e4mpfer f\u00fcr das Gute", "popularity": 1059.894, "original_name": "The Flash", "backdrop_path": "/41yaWnIT8AjIHiULHtTbKNzZTjc.jpg", "vote_average": 7.8, "vote_count": 9418, "first_air_date": "2014-10-07", "original_language": "en", "id": 60735, "genre_ids": [18, 10765]}, {"origin_country": ["US"], "poster_path": "/4Cl0JlrdtFFKwrzKoa9zf13U6zM.jpg", "name": "Grey's Anatomy", "overview": "Die Serie erz\u00e4hlt die Geschichte von f\u00fcnf jungen Assistenz\u00e4rzten des fiktiven Krankenhauses Seattle Grace Hospital in Seattle. Im Mittelpunkt steht die junge \u00c4rztin Meredith Grey, die zusammen mit ihren Kollegen Cristina Yang, Isobel \"Izzie\" Stevens, George O'Malley und Alex Karev ihre Ausbildung in der Chirurgie absolviert. Im Kern der Handlung stehen die verschiedenen Beziehungen der Assistenz\u00e4rzte untereinander und mit ihren Stationsober\u00e4rzten.", "popularity": 912.749, "original_name": "Grey's Anatomy", "backdrop_path": "/gIApbx2ffXVhJb2D4tiEx2b06nl.jpg", "vote_average": 8.3, "vote_count": 7747, "first_air_date": "2005-03-27", "original_language": "en", "id": 1416, "genre_ids": [18]}, {"origin_country": ["US"], "poster_path": "/2fvAIyVfFHQdhJ7OsJWuMlF7836.jpg", "name": "Wheel of Fortune", "overview": "", "popularity": 840.36, "original_name": "Wheel of Fortune", "backdrop_path": "/yfXSvNfF43S0cxpxCEKaU17yZ64.jpg", "vote_average": 6.7, "vote_count": 47, "first_air_date": "1983-09-19", "original_language": "en", "id": 2778, "genre_ids": [10751]}, {"origin_country": ["US"], "poster_path": "/yqYITBxRpsSLjScfFz1o35pelFw.jpg", "name": "Die Simpsons", "overview": "Die Simpsons sind eine amerikanische Durchschnittsfamilie. Immer neue Geschichten gibt es \u00fcber Homer, Marge, Bart, Lisa und Maggie und \u00fcber die weiteren Bewohner von Springfield zu erz\u00e4hlen.", "popularity": 821.842, "original_name": "The Simpsons", "backdrop_path": "/hpU2cHC9tk90hswCFEpf5AtbqoL.jpg", "vote_average": 7.9, "vote_count": 7664, "first_air_date": "1989-12-17", "original_language": "en", "id": 456, "genre_ids": [10751, 16, 35]}, {"origin_country": ["GB"], "poster_path": "/bpmLMZP3M1vLujPqHnOTnKVjRJY.jpg", "name": "Hollyoaks", "overview": "", "popularity": 689.421, "original_name": "Hollyoaks", "backdrop_path": "/r8CGqB8IJNbA1IruHWquS7YttNB.jpg", "vote_average": 5.1, "vote_count": 37, "first_air_date": "1995-10-23", "original_language": "en", "id": 966, "genre_ids": [10766]}, {"origin_country": ["ES"], "poster_path": "/rucYOgpymV2gAvyJUVK1awLTOcH.jpg", "name": "Secret Story: La casa de los secretos", "overview": "", "popularity": 686.729, "original_name": "Secret Story: La casa de los secretos", "backdrop_path": "/vhEtBjbxLMlPTPCS6TGk0WLo9C8.jpg", "vote_average": 3.7, "vote_count": 3, "first_air_date": "2021-09-09", "original_language": "es", "id": 132712, "genre_ids": [10764]}, {"origin_country": ["BR"], "poster_path": "/63qlVcvlVzOvMaFO8tFA2VG64Yc.jpg", "name": "Um Lugar ao Sol", "overview": "", "popularity": 601.464, "original_name": "Um Lugar ao Sol", "backdrop_path": "/8lBlBItnehgOAwFt0ezxlXuWeIO.jpg", "vote_average": 5.6, "vote_count": 7, "first_air_date": "2021-11-08", "original_language": "pt", "id": 132375, "genre_ids": [10766, 18]}, {"origin_country": ["BR"], "poster_path": "/ydtfMZMu04L5noElS35BespN8rV.jpg", "name": "Quanto Mais Vida, Melhor!", "overview": "", "popularity": 599.79, "original_name": "Quanto Mais Vida, Melhor!", "backdrop_path": "/bX6embf0yknbV6R5NVUwM60FQXG.jpg", "vote_average": 4.5, "vote_count": 3, "first_air_date": "2021-11-22", "original_language": "pt", "id": 139009, "genre_ids": [10766, 35]}, {"origin_country": ["US"], "poster_path": "/8Qcjj6WikAVPGoRjrV1oMYcEcGw.jpg", "name": "Bel-Air", "overview": "", "popularity": 553.336, "original_name": "Bel-Air", "backdrop_path": "/zHdQ6yaqDf3OQO5uhr0auAgwK6O.jpg", "vote_average": 7.6, "vote_count": 46, "first_air_date": "2022-02-13", "original_language": "en", "id": 107365, "genre_ids": [18]}, {"origin_country": ["US"], "poster_path": "/qrGqcfVvFrn3013meVlCe8BR7sb.jpg", "name": "How I Met Your Father", "overview": "", "popularity": 547.589, "original_name": "How I Met Your Father", "backdrop_path": "/40JJpWnIkxMpKGHCjt9uE6kzJHU.jpg", "vote_average": 8, "vote_count": 28, "first_air_date": "2022-01-18", "original_language": "en", "id": 124010, "genre_ids": [35]}, {"origin_country": ["US"], "poster_path": "/ttzrYMdsKWR8PTRLw7uo4noqaOJ.jpg", "name": "S.W.A.T.", "overview": "Die Serie dreht sich um einen lokal verwurzelten S.W.A.T. Seargent, der im Spannungsfeld zwischen der Loyalit\u00e4t zur Stra\u00dfe und seinen polizeilichen Pflichten mit seinem trainierten Team die letzte Bastion der Verbrechensbek\u00e4mpfung in Los Angeles  darstellt.", "popularity": 535.623, "original_name": "S.W.A.T.", "backdrop_path": "/7j4ug9B6JXVeh5HhQjjPScrdj4Z.jpg", "vote_average": 8.1, "vote_count": 798, "first_air_date": "2017-11-02", "original_language": "en", "id": 71790, "genre_ids": [10759, 80, 18]}, {"origin_country": ["NL"], "poster_path": "/zmXxCP0op3PoCSiqXkSKDySbxe8.jpg", "name": "Big Brother", "overview": "", "popularity": 520.586, "original_name": "Big Brother", "backdrop_path": "/jQQMAfi6Xlo8jEuPe8qV2cWf6pR.jpg", "vote_average": 5.8, "vote_count": 7, "first_air_date": "2021-01-04", "original_language": "nl", "id": 114885, "genre_ids": [10764]}, {"origin_country": ["DZ"], "poster_path": "/ydSvHgksuB8Ix0V05QEZBKrnIcg.jpg", "name": "Law & Order: Special Victims Unit", "overview": "Bei Polizei und Staatsanwaltschaft gelten Sexualverbrechen als besonders abscheulich. In New York City geh\u00f6ren die engagierten Detectives, die in diesen brutalen F\u00e4llen ermitteln, zur Sondereinheit f\u00fcr Sexualdelikte. Dies sind ihre Geschichten. Innerhalb der New Yorker Polizei gibt es eine Sondereinheit, die Special Victims Unit. Die F\u00e4lle, die das SVU untersucht, beschr\u00e4nken sich ausschlie\u00dflich auf Sexualdelikte und Verbrechen an Kindern", "popularity": 505.311, "original_name": "Law & Order: Special Victims Unit", "backdrop_path": "/cD9PxbrdWYgL7MUpD9eOYuiSe2P.jpg", "vote_average": 7.9, "vote_count": 2792, "first_air_date": "1999-09-20", "original_language": "en", "id": 2734, "genre_ids": [80, 18]}, {"origin_country": ["US"], "poster_path": "/qTZIgXrBKURBK1KrsT7fe3qwtl9.jpg", "name": "Legacies", "overview": "Die Salvatore School For The Young And Gifted im kleinen \u00d6rtchen Mystic Falls ist keine normale Schule. Statt gew\u00f6hnlichen Jugendlichen werden hier n\u00e4mlich junge Vampire, Werw\u00f6lfe und Hexen unterrichtet. Unter diesen befindet sich auch die 17-j\u00e4hrige Hope Mikaelson, Nachfahrin des ber\u00fcchtigten Mikaelson-Vampir-Clans. Gemeinsam mit anderen \u00fcbernat\u00fcrlichen Teenagern wie den Zwillingst\u00f6chtern des Schul-Gr\u00fcnders Alaric Saltzman wird Hope in dem Internat auf die wohl ungew\u00f6hnlichste Weise erwachsen und dazu erzogen, das Beste aus sich und ihrer d\u00fcsteren Veranlagung zu machen. Doch nicht alle k\u00f6nnen ihre finsteren Impulse unterdr\u00fccken...", "popularity": 478.932, "original_name": "Legacies", "backdrop_path": "/fRYwdeNjMqC30EhofPx5PlDpdun.jpg", "vote_average": 8.5, "vote_count": 2435, "first_air_date": "2018-10-25", "original_language": "en", "id": 79460, "genre_ids": [10765, 18]}, {"origin_country": ["US"], "poster_path": "/zwXY8e26RahW6mEcvGSshP0ef43.jpg", "name": "The Blacklist", "overview": "Raymond \u201eRed\u201c Reddington ist ein ehemaliger Offizier des amerikanischen Marinegeheimdienstes und einer der meistgesuchten Verbrecher der USA. Eines Tages stellt er sich in der FBI-Hauptzentrale in Washington, D.C. und bietet dem FBI an, bei der Suche nach Verbrechern und Terroristen zu helfen. Allerdings verlangt er, einzig mit der FBI-Agentin Elizabeth Keen zu verhandeln, die vor Kurzem erst aus Quantico zugezogen ist. Die Informationen, die er weitergibt, stammen von einer von ihm \u00fcber Jahre angelegten Liste, der sogenannten Blacklist.", "popularity": 453.294, "original_name": "The Blacklist", "backdrop_path": "/wAAuhiwWqH42Xc3UZjDBUlGvk63.jpg", "vote_average": 7.5, "vote_count": 2296, "first_air_date": "2013-09-23", "original_language": "en", "id": 46952, "genre_ids": [18, 80, 9648]}, {"origin_country": ["PH"], "poster_path": "/gBJIKWkI90L57ky6EUzQGE6wWpJ.jpg", "name": "The Broken Marriage Vow", "overview": "", "popularity": 434.935, "original_name": "The Broken Marriage Vow", "backdrop_path": "/uJFGkVOIuqzzrgffrefmFHN2qT9.jpg", "vote_average": 4.1, "vote_count": 4, "first_air_date": "2022-01-24", "original_language": "tl", "id": 125030, "genre_ids": [18]}]}